{
	"nextId": 27,
	"items": [
		{
			"id": 1,
			"title": "oddgg",
			"note": "bfgbgbn",
			"user": "ddfg",
			"importance": 4,
			"length": 7,
			"file": "",
			"dateOfCreation": "2018-9-22T16:53:4Z"
		},
		{
			"id": 3,
			"title": "sdef",
			"note": "sef",
			"user": "sef",
			"importance": 34,
			"length": 3,
			"file": "",
			"dateOfCreation": "2018-9-22T17:1:34Z"
		},
		{
			"id": 12,
			"title": "ffffffffffffffffff",
			"note": "4dvdg5grtu6",
			"user": "gbfgbffg",
			"importance": 4,
			"length": 11,
			"file": "",
			"dateOfCreation": "2018-9-28T20:32:1Z"
		},
		{
			"id": 18,
			"title": "hhnffgbr",
			"note": "rtndfnfnf",
			"user": "gyffyh",
			"importance": 45,
			"length": 9,
			"file": "2018-9-28T21:47:44Z_gyffyh.png",
			"dateOfCreation": "2018-9-28T21:47:44Z"
		},
		{
			"id": 19,
			"title": "klbdm",
			"note": "fggmhhjm",
			"user": "hj,h,k",
			"importance": 7,
			"length": 8,
			"file": "2018-9-28T21:55:22Z_hj,h,kk",
			"dateOfCreation": "2018-9-28T21:55:22Z"
		},
		{
			"id": 20,
			"title": "hfdd",
			"note": "lhkfh",
			"user": "kjljh",
			"importance": 8,
			"length": 5,
			"file": "2018-9-28T21:56:27Z_kjljh.ots",
			"dateOfCreation": "2018-9-28T21:56:27Z"
		},
		{
			"id": 21,
			"title": "gfdsghgfd",
			"note": "hvmchngvmchn",
			"user": "hvjchfxdfjhghcn",
			"importance": 5,
			"length": 12,
			"file": "2018-10-1T1:18:6Z_hvjchfxdfjhghcn.jpg",
			"dateOfCreation": "2018-10-1T1:18:6Z"
		},
		{
			"id": 22,
			"title": "abrar",
			"note": "abrar",
			"user": "abrar",
			"importance": 4,
			"length": 5,
			"file": "2018-10-2T17:5:42Z_abrar.png",
			"dateOfCreation": "2018-10-2T17:5:42Z"
		},
		{
			"id": 23,
			"title": "adf",
			"note": "adf",
			"user": "adf",
			"importance": 3,
			"length": 3,
			"file": "2018-10-2T17:6:37Z_adf.jpg",
			"dateOfCreation": "2018-10-2T17:6:37Z"
		},
		{
			"id": 24,
			"title": "terg",
			"note": "bytn",
			"user": "dbd",
			"importance": 5,
			"length": 4,
			"file": "",
			"dateOfCreation": "2018-10-3T10:30:44Z"
		},
		{
			"id": 25,
			"title": "fgdbdb",
			"note": "fyyyty",
			"user": "fnbfty",
			"importance": 45,
			"length": 6,
			"file": "2018-10-3T10:30:59Z_fnbfty.jpg",
			"dateOfCreation": "2018-10-3T10:30:59Z"
		},
		{
			"id": 26,
			"title": "AAA",
			"note": "AAA",
			"user": "AAA",
			"importance": 3,
			"length": 3,
			"file": "",
			"dateOfCreation": "2018-10-3T11:48:9Z"
		}
	]
}