{
    "nextId": 3,
    "items": [
        {
            "id": 0,
            "login": "admin",
            "role": 0,
            "fullname": "Admin",
            "bio": "I was born in French. I am 19 years old and i am a girl. I love badminton and Dota 2. Moreover, I like to go for a walk with my friends.",
            "registeredAt": "2018-09-03T09:03:11Z",
            "avaUrl": "/images/users/admin.png",
            "isDisabled": false
        },
	    {
            "id": 1,
            "login": "user1",
            "role": 1,
            "fullname": "A user1",
            "bio": "I was born in Canada. I am 25 years old. I love computer games and tennis. Also I like to go to the gym.",
            "registeredAt": "2018-09-12T21:11:19Z",
            "avaUrl": "/images/users/user1.jpg",
            "isDisabled": true
        }
    ]
}
