{
	"nextId": 4,
	"items": [
		{
			"id": 1,
			"note": "ghjnkjdfg",
			"user": "flgbkmlk",
			"importance": 7,
			"length": 9,
			"dateOfCreation": "2018-9-3T23:25:51Z"
		},
		{
			"id": 3,
			"note": "sef",
			"user": "sef",
			"importance": 133,
			"length": 3,
			"dateOfCreation": "2018-9-6T10:33:17Z"
		},
		{
			"id": 2,
			"note": "fffffffff",
			"user": "UsEr",
			"importance": 6,
			"length": 9,
			"dateOfCreation": "2018-9-6T10:36:40Z"
		},
		{
			"id": 0,
			"note": "iiiii",
			"user": "dfhg",
			"importance": 7,
			"length": 5,
			"dateOfCreation": "2018-9-6T11:8:36Z"
		}
	]
}