{
	"nextId": 4,
	"items": [
		{
			"id": 1,
			"title": "Note1",
			"note": "You need to do your lab. It must be done before Sunday.",
			"user": "flgbkmlk",
			"importance": 7,
			"length": 9,
			"dateOfCreation": "2018-9-3T23:25:51Z"
		},
		{
			"id": 2,
			"title": "Uber note",
			"note": "Pick up the passenger from Fake.st123 at 13:00.",
			"user": "UsEr",
			"importance": 6,
			"length": 9,
			"dateOfCreation": "2018-9-6T10:36:40Z"
		},
		{
			"id": 0,
			"title": "Ornote",
			"note": "You must do your work before tomorow or you will be fired. (Angry Boss)",
			"user": "dfhg",
			"importance": 7,
			"length": 5,
			"dateOfCreation": "2018-9-6T11:8:36Z"
		}
	]
}